%YAML 1.1
%TAG !u! tag:unity3d.com,2011:
--- !u!1045 &1
EditorBuildSettings:
  m_ObjectHideFlags: 0
  serializedVersion: 2
  m_Scenes:
  - enabled: 1
    path: "Assets/Scenes/Sc\xE8nes Menu/SampleScene.unity"
    guid: 2cda990e2423bbf4892e6590ba056729
  - enabled: 1
    path: "Assets/Scenes/Sc\xE8nes Menu/CharacterScene.unity"
    guid: 3346078bd06eaeb4a99b001585bbd10a
  - enabled: 1
    path: "Assets/Scenes/Sc\xE8nes Menu/ResultScreen.unity"
    guid: ca272e3c399f9104d8f94a5f3ff341b6
  - enabled: 1
    path: "Assets/Scenes/Sc\xE8nes Menu/ChoixNiveau.unity"
    guid: 8eec4a485f51d52448f1bd33eb29bc83
  - enabled: 1
    path: "Assets/Scenes/Sc\xE8nes combat/Scene Combat2.unity"
    guid: 072f00b01282ba840941ae2f2e6cd9f8
  - enabled: 1
    path: "Assets/Scenes/Sc\xE8nes combat/Scene Combat3.unity"
    guid: 3b9b8cc069c5e7746bc2325318a1ab28
  - enabled: 1
    path: "Assets/Scenes/Sc\xE8nes combat/Scene Combat0.unity"
    guid: aa8edbd4a3793c34f85a93b542621735
  - enabled: 1
    path: "Assets/Scenes/Sc\xE8nes combat/Scene Combat1.unity"
    guid: 7c4af69ba0938fd419bd69edc1798193
  m_configObjects:
    com.unity.input.settings: {fileID: 11400000, guid: aa81edfa261e2674aa80072bb19cb875,
      type: 2}
